{
    "pipeline":[
        // load input data. Can be override via command line via:
        // --readers.las.filename=<the new file>
        {
            "type":"readers.las",
            "filename":"OverrideThisFilename.las",
            "tag":"input"
        },
        {
            "type":"filters.python",
            "function":"filter",
            "source":"import numpy as np
def filter(ins, outs):
    cls = ins['Classification']
    condition =  ( (ins['NormalZ'] >= 0) & (ins['NormalZ'] < 0.6) )
    cls[ condition ] = 1
    outs['Classification'] = cls
    return True"
        },
        // generate output. Can be override via command line via:
        // --writers.las.filename=<the new file>
        {
            "type":"writers.las",
            "filename":"OverrideThisFilename.las",
            // aadd all dimensions generated during previous processings
            // otherwise only LAS dimensions are saved
            "extra_dims":"all"
        }
  
    ]
  }